        -:    0:Source:RunVoting.c++
        -:    0:Graph:RunVoting.gcno
        -:    0:Data:RunVoting.gcda
        -:    0:Runs:2
        -:    0:Programs:1
        -:    1:#ifdef ONLINE_JUDGE
        -:    2:    #define NDEBUG
        -:    3:#endif
        -:    4:
        -:    5:// --------
        -:    6:// includes
        -:    7:// --------
        -:    8:
        -:    9:#include <iostream> 
        -:   10:
        -:   11:#include "Voting.h"
        -:   12:
        -:   13:// ----
        -:   14:// main
        -:   15:// ----
        -:   16:
function main called 2 returned 100% blocks executed 100%
        2:   17:int main () {
        -:   18:    using namespace std;
        2:   19:    voting_solve(cin, cout);
call    0 returned 100%
        2:   20:    return 0;
function _GLOBAL__sub_I_main called 2 returned 100% blocks executed 100%
function _Z41__static_initialization_and_destruction_0ii called 2 returned 100% blocks executed 100%
        6:   21:}
call    0 returned 100%
branch  1 taken 100% (fallthrough)
branch  2 taken 0%
branch  3 taken 100% (fallthrough)
branch  4 taken 0%
        -:   22:
        -:   23:
