==16347== Memcheck, a memory error detector
==16347== Copyright (C) 2002-2011, and GNU GPL'd, by Julian Seward et al.
==16347== Using Valgrind-3.7.0 and LibVEX; rerun with -h for copyright info
==16347== Command: ./TestVoting
==16347== 
Running main() from gtest_main.cc
[==========] Running 15 tests from 1 test case.
[----------] Global test environment set-up.
[----------] 15 tests from Voting
[ RUN      ] Voting.read_args_1
[       OK ] Voting.read_args_1 (32 ms)
[ RUN      ] Voting.read_args_2
[       OK ] Voting.read_args_2 (3 ms)
[ RUN      ] Voting.read_args_3
[       OK ] Voting.read_args_3 (3 ms)
[ RUN      ] Voting.read_cand_1
[       OK ] Voting.read_cand_1 (5 ms)
[ RUN      ] Voting.read_cand_2
[       OK ] Voting.read_cand_2 (4 ms)
[ RUN      ] Voting.read_cand_3
[       OK ] Voting.read_cand_3 (3 ms)
[ RUN      ] Voting.read_ballot_1
[       OK ] Voting.read_ballot_1 (17 ms)
[ RUN      ] Voting.read_ballot_2
[       OK ] Voting.read_ballot_2 (4 ms)
[ RUN      ] Voting.read_ballot_3
[       OK ] Voting.read_ballot_3 (7 ms)
[ RUN      ] Voting.eval_1
[       OK ] Voting.eval_1 (10 ms)
[ RUN      ] Voting.eval_2
[       OK ] Voting.eval_2 (11 ms)
[ RUN      ] Voting.eval_3
[       OK ] Voting.eval_3 (7 ms)
[ RUN      ] Voting.solve_1
[       OK ] Voting.solve_1 (18 ms)
[ RUN      ] Voting.solve_2
[       OK ] Voting.solve_2 (8 ms)
[ RUN      ] Voting.solve_3
[       OK ] Voting.solve_3 (5 ms)
[----------] 15 tests from Voting (156 ms total)

[----------] Global test environment tear-down
[==========] 15 tests from 1 test case ran. (217 ms total)
[  PASSED  ] 15 tests.
==16347== 
==16347== HEAP SUMMARY:
==16347==     in use at exit: 0 bytes in 0 blocks
==16347==   total heap usage: 644 allocs, 644 frees, 75,634 bytes allocated
==16347== 
==16347== All heap blocks were freed -- no leaks are possible
==16347== 
==16347== For counts of detected and suppressed errors, rerun with: -v
==16347== ERROR SUMMARY: 0 errors from 0 contexts (suppressed: 2 from 2)





File 'Voting.c++'
Lines executed:73.47% of 98
Branches executed:69.77% of 172
Taken at least once:41.28% of 172
Calls executed:53.70% of 108
Creating 'Voting.c++.gcov'

File '/usr/include/c++/4.7/iostream'
Lines executed:100.00% of 1
No branches
Calls executed:100.00% of 4
Creating 'iostream.gcov'

File '/usr/include/c++/4.7/bits/stl_multimap.h'
Lines executed:54.55% of 11
No branches
Calls executed:57.14% of 7
Creating 'stl_multimap.h.gcov'

File '/usr/include/c++/4.7/ext/new_allocator.h'
Lines executed:78.57% of 14
Branches executed:100.00% of 4
Taken at least once:50.00% of 4
Calls executed:77.78% of 9
Creating 'new_allocator.h.gcov'

File '/usr/include/c++/4.7/bits/stl_tree.h'
Lines executed:47.85% of 163
Branches executed:30.00% of 60
Taken at least once:25.00% of 60
Calls executed:40.87% of 115
Creating 'stl_tree.h.gcov'

File '/usr/include/c++/4.7/bits/stl_pair.h'
Lines executed:100.00% of 5
No branches
Calls executed:80.00% of 10
Creating 'stl_pair.h.gcov'

File '/usr/include/c++/4.7/bits/stl_function.h'
Lines executed:100.00% of 6
No branches
No calls
Creating 'stl_function.h.gcov'

File '/usr/include/c++/4.7/bits/allocator.h'
Lines executed:25.00% of 4
No branches
Calls executed:33.33% of 3
Creating 'allocator.h.gcov'

File '/usr/include/c++/4.7/sstream'
Lines executed:0.00% of 1
Branches executed:0.00% of 4
Taken at least once:0.00% of 4
Calls executed:0.00% of 10
Creating 'sstream.gcov'

File '/usr/include/c++/4.7/streambuf'
No executable lines
No branches
No calls
Removing 'streambuf.gcov'

File '/usr/include/c++/4.7/ostream'
No executable lines
No branches
No calls
Removing 'ostream.gcov'

File '/usr/include/c++/4.7/istream'
No executable lines
No branches
No calls
Removing 'istream.gcov'

File '/usr/include/c++/4.7/bits/basic_ios.h'
Lines executed:0.00% of 4
Branches executed:0.00% of 4
Taken at least once:0.00% of 4
Calls executed:0.00% of 2
Creating 'basic_ios.h.gcov'

File '/usr/include/c++/4.7/bits/basic_string.h'
Lines executed:44.44% of 9
Branches executed:0.00% of 4
Taken at least once:0.00% of 4
Calls executed:22.22% of 9
Creating 'basic_string.h.gcov'

File '/usr/include/c++/4.7/bits/move.h'
Lines executed:100.00% of 2
No branches
No calls
Creating 'move.h.gcov'

File '/usr/include/c++/4.7/bits/basic_string.tcc'
Lines executed:30.43% of 23
Branches executed:27.27% of 22
Taken at least once:13.64% of 22
Calls executed:21.43% of 28
Creating 'basic_string.tcc.gcov'

File '/usr/include/c++/4.7/bits/locale_facets.h'
Lines executed:0.00% of 5
Branches executed:0.00% of 4
Taken at least once:0.00% of 4
Calls executed:0.00% of 4
Creating 'locale_facets.h.gcov'

File '/usr/include/c++/4.7/bits/ios_base.h'
Lines executed:33.33% of 6
No branches
No calls
Creating 'ios_base.h.gcov'

File '/usr/include/c++/4.7/new'
Lines executed:100.00% of 2
No branches
No calls
Creating 'new.gcov'

File '/usr/include/c++/4.7/ext/atomicity.h'
Lines executed:0.00% of 10
Branches executed:0.00% of 4
Taken at least once:0.00% of 4
Calls executed:0.00% of 6
Creating 'atomicity.h.gcov'

File '/usr/include/x86_64-linux-gnu/c++/4.7/bits/gthr-default.h'
Lines executed:0.00% of 2
No branches
No calls
Creating 'gthr-default.h.gcov'

File '/usr/include/c++/4.7/bits/char_traits.h'
Lines executed:33.33% of 6
No branches
No calls
Creating 'char_traits.h.gcov'

File 'TestVoting.c++'
Lines executed:98.73% of 79
Branches executed:66.54% of 538
Taken at least once:33.64% of 538
Calls executed:57.39% of 514
Creating 'TestVoting.c++.gcov'

File '/usr/local/include/gtest/internal/gtest-port.h'
Lines executed:43.75% of 16
Branches executed:28.57% of 28
Taken at least once:14.29% of 28
Calls executed:15.38% of 26
Creating 'gtest-port.h.gcov'

File '/usr/local/include/gtest/internal/gtest-param-util.h'
Lines executed:0.00% of 29
Branches executed:0.00% of 34
Taken at least once:0.00% of 34
Calls executed:0.00% of 60
Creating 'gtest-param-util.h.gcov'

File '/usr/include/c++/4.7/bits/stl_bvector.h'
Lines executed:0.00% of 32
Branches executed:0.00% of 10
Taken at least once:0.00% of 10
Calls executed:0.00% of 14
Creating 'stl_bvector.h.gcov'

File '/usr/local/include/gtest/internal/gtest-internal.h'
Lines executed:80.00% of 5
Branches executed:100.00% of 62
Taken at least once:50.00% of 62
Calls executed:65.22% of 138
Creating 'gtest-internal.h.gcov'

File '/usr/local/include/gtest/gtest-printers.h'
Lines executed:0.00% of 33
Branches executed:0.00% of 42
Taken at least once:0.00% of 42
Calls executed:0.00% of 53
Creating 'gtest-printers.h.gcov'

File '/usr/include/c++/4.7/bits/stl_iterator_base_funcs.h'
Lines executed:0.00% of 4
No branches
Calls executed:0.00% of 2
Creating 'stl_iterator_base_funcs.h.gcov'

File '/usr/include/c++/4.7/bits/stl_iterator_base_types.h'
Lines executed:0.00% of 3
No branches
No calls
Creating 'stl_iterator_base_types.h.gcov'

File '/usr/include/c++/4.7/ext/type_traits.h'
Lines executed:0.00% of 2
No branches
No calls
Creating 'type_traits.h.gcov'

File '/usr/local/include/gtest/gtest.h'
Lines executed:39.29% of 28
Branches executed:29.63% of 54
Taken at least once:14.81% of 54
Calls executed:18.60% of 129
Creating 'gtest.h.gcov'

File '/usr/local/include/gtest/gtest-message.h'
Lines executed:100.00% of 1
No branches
Calls executed:100.00% of 1
Creating 'gtest-message.h.gcov'

File '/usr/local/include/gtest/gtest-test-part.h'
Lines executed:0.00% of 1
Branches executed:0.00% of 2
Taken at least once:0.00% of 2
Calls executed:0.00% of 3
Creating 'gtest-test-part.h.gcov'

File '/usr/local/include/gtest/internal/gtest-death-test-internal.h'
Lines executed:0.00% of 2
Branches executed:0.00% of 4
Taken at least once:0.00% of 4
Calls executed:0.00% of 6
Creating 'gtest-death-test-internal.h.gcov'

File '/usr/include/c++/4.7/typeinfo'
Lines executed:0.00% of 3
Branches executed:0.00% of 6
Taken at least once:0.00% of 6
No calls
Creating 'typeinfo.gcov'

Lines executed:49.18% of 610
